\select@language {english}
\contentsline {chapter}{Abstract}{1}{Doc-Start}
\contentsline {section}{\numberline {1}Section Two}{3}{section.1}
\contentsline {subsection}{\numberline {1.1}Subsection Two One}{3}{subsection.1.1}
\contentsline {subsubsection}{\numberline {1.1.1}Subsubsection Two One One}{3}{subsubsection.1.1.1}
\contentsline {subsubsection}{\numberline {1.1.2}Subsubsection Two One Two}{3}{subsubsection.1.1.2}
\contentsline {subsection}{\numberline {1.2}Subsection Two Two}{3}{subsection.1.2}
\contentsline {section}{\numberline {2}Section Three}{3}{section.2}
\contentsline {section}{\numberline {3}Conclusion}{3}{section.3}
